^E:\FACULTATE\ANUL3\SPG\TEMPLATESPG\POPOVICIMARIUS\OPENGL_4_APPLICATION_VS2015\OPENGL_4_APPLICATION_VS2015\DEBUG\CAMERA.OBJ|E:\FACULTATE\ANUL3\SPG\TEMPLATESPG\POPOVICIMARIUS\OPENGL_4_APPLICATION_VS2015\OPENGL_4_APPLICATION_VS2015\DEBUG\MESH.OBJ|E:\FACULTATE\ANUL3\SPG\TEMPLATESPG\POPOVICIMARIUS\OPENGL_4_APPLICATION_VS2015\OPENGL_4_APPLICATION_VS2015\DEBUG\MODEL3D.OBJ|E:\FACULTATE\ANUL3\SPG\TEMPLATESPG\POPOVICIMARIUS\OPENGL_4_APPLICATION_VS2015\OPENGL_4_APPLICATION_VS2015\DEBUG\OPENGL_4_APPLICATION_VS2015.OBJ|E:\FACULTATE\ANUL3\SPG\TEMPLATESPG\POPOVICIMARIUS\OPENGL_4_APPLICATION_VS2015\OPENGL_4_APPLICATION_VS2015\DEBUG\SHADER.OBJ|E:\FACULTATE\ANUL3\SPG\TEMPLATESPG\POPOVICIMARIUS\OPENGL_4_APPLICATION_VS2015\OPENGL_4_APPLICATION_VS2015\DEBUG\SKYBOX.OBJ|E:\FACULTATE\ANUL3\SPG\TEMPLATESPG\POPOVICIMARIUS\OPENGL_4_APPLICATION_VS2015\OPENGL_4_APPLICATION_VS2015\DEBUG\STB_IMAGE.OBJ|E:\FACULTATE\ANUL3\SPG\TEMPLATESPG\POPOVICIMARIUS\OPENGL_4_APPLICATION_VS2015\OPENGL_4_APPLICATION_VS2015\DEBUG\STDAFX.OBJ
E:\FACULTATE\ANUL3\SPG\TEMPLATESPG\POPOVICIMARIUS\OPENGL_4_APPLICATION_VS2015\DEBUG\OPENGL_4_APPLICATION_VS2015.EXE
E:\FACULTATE\ANUL3\SPG\TEMPLATESPG\POPOVICIMARIUS\OPENGL_4_APPLICATION_VS2015\DEBUG\OPENGL_4_APPLICATION_VS2015.ILK
E:\FACULTATE\ANUL3\SPG\TEMPLATESPG\POPOVICIMARIUS\OPENGL_4_APPLICATION_VS2015\DEBUG\OPENGL_4_APPLICATION_VS2015.PDB
