# Blender MTL File: 'save1.blend'
# Material Count: 15

newmtl Material.297
Ns 225.000000
Ka 1.000000 1.000000 1.000000
Kd 0.658375 0.584078 0.270498
Ks 0.500000 0.500000 0.500000
Ke 0.0 0.0 0.0
Ni 1.000000
d 1.000000
illum 2

newmtl Material.298
Ns 225.000000
Ka 1.000000 1.000000 1.000000
Kd 0.168269 0.168269 0.168269
Ks 0.500000 0.500000 0.500000
Ke 0.0 0.0 0.0
Ni 1.000000
d 1.000000
illum 2

newmtl Material.300
Ns 225.000000
Ka 1.000000 1.000000 1.000000
Kd 0.061246 0.061246 0.063010
Ks 0.500000 0.500000 0.500000
Ke 0.0 0.0 0.0
Ni 1.000000
d 1.000000
illum 2

newmtl Material.301
Ns 225.000000
Ka 1.000000 1.000000 1.000000
Kd 0.033105 0.033105 0.033105
Ks 0.500000 0.500000 0.500000
Ke 0.0 0.0 0.0
Ni 1.000000
d 1.000000
illum 2

newmtl Material.303
Ns 225.000000
Ka 1.000000 1.000000 1.000000
Kd 0.800000 0.800000 0.800000
Ks 0.500000 0.500000 0.500000
Ke 0.0 0.0 0.0
Ni 1.000000
d 1.000000
illum 2

newmtl Material.304
Ns 225.000000
Ka 1.000000 1.000000 1.000000
Kd 0.086500 0.086500 0.086500
Ks 0.500000 0.500000 0.500000
Ke 0.0 0.0 0.0
Ni 1.000000
d 1.000000
illum 2

newmtl Material.305
Ns 225.000000
Ka 1.000000 1.000000 1.000000
Kd 0.799103 0.361307 0.208637
Ks 0.500000 0.500000 0.500000
Ke 0.0 0.0 0.0
Ni 1.000000
d 1.000000
illum 2

newmtl Material.312
Ns 225.000000
Ka 1.000000 1.000000 1.000000
Kd 0.132868 0.076185 0.030713
Ks 0.500000 0.500000 0.500000
Ke 0.0 0.0 0.0
Ni 1.000000
d 1.000000
illum 2

newmtl Material.313
Ns 225.000000
Ka 1.000000 1.000000 1.000000
Kd 1.000000 0.871367 0.309469
Ks 0.500000 0.500000 0.500000
Ke 0.0 0.0 0.0
Ni 1.000000
d 1.000000
illum 2

newmtl Material.315
Ns 225.000000
Ka 1.000000 1.000000 1.000000
Kd 0.014444 0.014444 0.014444
Ks 0.500000 0.500000 0.500000
Ke 0.0 0.0 0.0
Ni 1.000000
d 1.000000
illum 2

newmtl Material.316
Ns 225.000000
Ka 1.000000 1.000000 1.000000
Kd 0.545724 0.149960 0.012983
Ks 0.500000 0.500000 0.500000
Ke 0.0 0.0 0.0
Ni 1.000000
d 1.000000
illum 2

newmtl Material.318
Ns 225.000000
Ka 1.000000 1.000000 1.000000
Kd 0.238398 0.223228 0.022174
Ks 0.500000 0.500000 0.500000
Ke 0.0 0.0 0.0
Ni 1.000000
d 1.000000
illum 2

newmtl Material.320
Ns 225.000000
Ka 1.000000 1.000000 1.000000
Kd 1.000000 0.871367 0.309469
Ks 0.500000 0.500000 0.500000
Ke 0.0 0.0 0.0
Ni 1.000000
d 1.000000
illum 2

newmtl Material.321
Ns 225.000000
Ka 1.000000 1.000000 1.000000
Kd 0.376262 0.187821 0.031896
Ks 0.500000 0.500000 0.500000
Ke 0.0 0.0 0.0
Ni 1.000000
d 1.000000
illum 2

newmtl Material.322
Ns 225.000000
Ka 1.000000 1.000000 1.000000
Kd 0.014444 0.014444 0.014444
Ks 0.500000 0.500000 0.500000
Ke 0.0 0.0 0.0
Ni 1.000000
d 1.000000
illum 2
