# Blender MTL File: 'None'
# Material Count: 45

newmtl Ground.002
Ns 223.529412
Ka 1.000000 1.000000 1.000000
Kd 0.800000 0.800000 0.800000
Ks 0.500000 0.500000 0.500000
Ke 0.000000 0.000000 0.000000
Ni 1.450000
d 1.000000
illum 2

newmtl Material.037
Ns 223.529412
Ka 1.000000 1.000000 1.000000
Kd 0.014444 0.014444 0.014444
Ks 0.500000 0.500000 0.500000
Ke 0.000000 0.000000 0.000000
Ni 1.000000
d 1.000000
illum 2

newmtl Material.038
Ns 223.529412
Ka 1.000000 1.000000 1.000000
Kd 0.376262 0.187821 0.031896
Ks 0.500000 0.500000 0.500000
Ke 0.000000 0.000000 0.000000
Ni 1.000000
d 1.000000
illum 2

newmtl Material.039
Ns 223.529412
Ka 1.000000 1.000000 1.000000
Kd 1.000000 0.871367 0.309469
Ks 0.500000 0.500000 0.500000
Ke 0.000000 0.000000 0.000000
Ni 1.000000
d 1.000000
illum 2

newmtl Material.040
Ns 223.529412
Ka 1.000000 1.000000 1.000000
Kd 0.238398 0.223228 0.022174
Ks 0.500000 0.500000 0.500000
Ke 0.000000 0.000000 0.000000
Ni 1.000000
d 1.000000
illum 2

newmtl Material.041
Ns 223.529412
Ka 1.000000 1.000000 1.000000
Kd 0.545724 0.149960 0.012983
Ks 0.500000 0.500000 0.500000
Ke 0.000000 0.000000 0.000000
Ni 1.000000
d 1.000000
illum 2

newmtl Material.042
Ns 223.529412
Ka 1.000000 1.000000 1.000000
Kd 0.014444 0.014444 0.014444
Ks 0.500000 0.500000 0.500000
Ke 0.000000 0.000000 0.000000
Ni 1.000000
d 1.000000
illum 2

newmtl Material.043
Ns 223.529412
Ka 1.000000 1.000000 1.000000
Kd 1.000000 0.871367 0.309469
Ks 0.500000 0.500000 0.500000
Ke 0.000000 0.000000 0.000000
Ni 1.000000
d 1.000000
illum 2

newmtl Material.044
Ns 223.529412
Ka 1.000000 1.000000 1.000000
Kd 0.132868 0.076185 0.030713
Ks 0.500000 0.500000 0.500000
Ke 0.000000 0.000000 0.000000
Ni 1.000000
d 1.000000
illum 2

newmtl Material.045
Ns 223.529412
Ka 1.000000 1.000000 1.000000
Kd 0.799103 0.361307 0.208637
Ks 0.500000 0.500000 0.500000
Ke 0.000000 0.000000 0.000000
Ni 1.000000
d 1.000000
illum 2

newmtl Material.048
Ns 223.529412
Ka 1.000000 1.000000 1.000000
Kd 0.086500 0.086500 0.086500
Ks 0.500000 0.500000 0.500000
Ke 0.000000 0.000000 0.000000
Ni 1.000000
d 1.000000
illum 2

newmtl Material.051
Ns 223.529412
Ka 1.000000 1.000000 1.000000
Kd 0.800000 0.800000 0.800000
Ks 0.500000 0.500000 0.500000
Ke 0.000000 0.000000 0.000000
Ni 1.000000
d 1.000000
illum 2

newmtl Material.055
Ns 223.529412
Ka 1.000000 1.000000 1.000000
Kd 0.033105 0.033105 0.033105
Ks 0.500000 0.500000 0.500000
Ke 0.000000 0.000000 0.000000
Ni 1.000000
d 1.000000
illum 2

newmtl Material.056
Ns 223.529412
Ka 1.000000 1.000000 1.000000
Kd 0.061246 0.061246 0.063010
Ks 0.500000 0.500000 0.500000
Ke 0.000000 0.000000 0.000000
Ni 1.000000
d 1.000000
illum 2

newmtl Material.057
Ns 223.529412
Ka 1.000000 1.000000 1.000000
Kd 0.168269 0.168269 0.168269
Ks 0.500000 0.500000 0.500000
Ke 0.000000 0.000000 0.000000
Ni 1.000000
d 1.000000
illum 2

newmtl Material.061
Ns 223.529412
Ka 1.000000 1.000000 1.000000
Kd 0.658375 0.584078 0.270498
Ks 0.500000 0.500000 0.500000
Ke 0.000000 0.000000 0.000000
Ni 1.000000
d 1.000000
illum 2

newmtl Material.063
Ns 223.529412
Ka 1.000000 1.000000 1.000000
Kd 0.014444 0.014444 0.014444
Ks 0.500000 0.500000 0.500000
Ke 0.000000 0.000000 0.000000
Ni 1.000000
d 1.000000
illum 2

newmtl Material.273
Ns 223.529412
Ka 1.000000 1.000000 1.000000
Kd 0.168269 0.450786 0.799103
Ks 0.500000 0.500000 0.500000
Ke 0.000000 0.000000 0.000000
Ni 1.000000
d 1.000000
illum 2

newmtl Material.274
Ns 223.529412
Ka 1.000000 1.000000 1.000000
Kd 0.061246 0.061246 0.063010
Ks 0.500000 0.500000 0.500000
Ke 0.000000 0.000000 0.000000
Ni 1.000000
d 1.000000
illum 2

newmtl Material.275
Ns 223.529412
Ka 1.000000 1.000000 1.000000
Kd 0.033105 0.033105 0.033105
Ks 0.500000 0.500000 0.500000
Ke 0.000000 0.000000 0.000000
Ni 1.000000
d 1.000000
illum 2

newmtl Material.276
Ns 223.529412
Ka 1.000000 1.000000 1.000000
Kd 0.376262 0.102242 0.048172
Ks 0.500000 0.500000 0.500000
Ke 0.000000 0.000000 0.000000
Ni 1.000000
d 1.000000
illum 2

newmtl Material.278
Ns 223.529412
Ka 1.000000 1.000000 1.000000
Kd 0.086500 0.086500 0.086500
Ks 0.500000 0.500000 0.500000
Ke 0.000000 0.000000 0.000000
Ni 1.000000
d 1.000000
illum 2

newmtl Material.287
Ns 223.529412
Ka 1.000000 1.000000 1.000000
Kd 1.000000 0.871367 0.309469
Ks 0.500000 0.500000 0.500000
Ke 0.000000 0.000000 0.000000
Ni 1.000000
d 1.000000
illum 2

newmtl Material.296
Ns 223.529412
Ka 1.000000 1.000000 1.000000
Kd 0.014444 0.014444 0.014444
Ks 0.500000 0.500000 0.500000
Ke 0.000000 0.000000 0.000000
Ni 1.000000
d 1.000000
illum 2

newmtl Material.323
Ns 223.529412
Ka 1.000000 1.000000 1.000000
Kd 0.376262 0.187821 0.031896
Ks 0.500000 0.500000 0.500000
Ke 0.000000 0.000000 0.000000
Ni 1.000000
d 1.000000
illum 2

newmtl Material.324
Ns 223.529412
Ka 1.000000 1.000000 1.000000
Kd 1.000000 0.871367 0.309469
Ks 0.500000 0.500000 0.500000
Ke 0.000000 0.000000 0.000000
Ni 1.000000
d 1.000000
illum 2

newmtl Material.325
Ns 223.529412
Ka 1.000000 1.000000 1.000000
Kd 0.238398 0.223228 0.022174
Ks 0.500000 0.500000 0.500000
Ke 0.000000 0.000000 0.000000
Ni 1.000000
d 1.000000
illum 2

newmtl Material.326
Ns 223.529412
Ka 1.000000 1.000000 1.000000
Kd 0.545724 0.149960 0.012983
Ks 0.500000 0.500000 0.500000
Ke 0.000000 0.000000 0.000000
Ni 1.000000
d 1.000000
illum 2

newmtl Material.327
Ns 223.529412
Ka 1.000000 1.000000 1.000000
Kd 0.014444 0.014444 0.014444
Ks 0.500000 0.500000 0.500000
Ke 0.000000 0.000000 0.000000
Ni 1.000000
d 1.000000
illum 2

newmtl Material.328
Ns 223.529412
Ka 1.000000 1.000000 1.000000
Kd 1.000000 0.871367 0.309469
Ks 0.500000 0.500000 0.500000
Ke 0.000000 0.000000 0.000000
Ni 1.000000
d 1.000000
illum 2

newmtl Material.329
Ns 223.529412
Ka 1.000000 1.000000 1.000000
Kd 0.132868 0.076185 0.030713
Ks 0.500000 0.500000 0.500000
Ke 0.000000 0.000000 0.000000
Ni 1.000000
d 1.000000
illum 2

newmtl Material.330
Ns 223.529412
Ka 1.000000 1.000000 1.000000
Kd 0.799103 0.361307 0.208637
Ks 0.500000 0.500000 0.500000
Ke 0.000000 0.000000 0.000000
Ni 1.000000
d 1.000000
illum 2

newmtl Material.331
Ns 223.529412
Ka 1.000000 1.000000 1.000000
Kd 0.086500 0.086500 0.086500
Ks 0.500000 0.500000 0.500000
Ke 0.000000 0.000000 0.000000
Ni 1.000000
d 1.000000
illum 2

newmtl Material.332
Ns 223.529412
Ka 1.000000 1.000000 1.000000
Kd 0.800000 0.800000 0.800000
Ks 0.500000 0.500000 0.500000
Ke 0.000000 0.000000 0.000000
Ni 1.000000
d 1.000000
illum 2

newmtl Material.333
Ns 223.529412
Ka 1.000000 1.000000 1.000000
Kd 0.033105 0.033105 0.033105
Ks 0.500000 0.500000 0.500000
Ke 0.000000 0.000000 0.000000
Ni 1.000000
d 1.000000
illum 2

newmtl Material.334
Ns 223.529412
Ka 1.000000 1.000000 1.000000
Kd 0.061246 0.061246 0.063010
Ks 0.500000 0.500000 0.500000
Ke 0.000000 0.000000 0.000000
Ni 1.000000
d 1.000000
illum 2

newmtl Material.335
Ns 223.529412
Ka 1.000000 1.000000 1.000000
Kd 0.168269 0.168269 0.168269
Ks 0.500000 0.500000 0.500000
Ke 0.000000 0.000000 0.000000
Ni 1.000000
d 1.000000
illum 2

newmtl Material.336
Ns 223.529412
Ka 1.000000 1.000000 1.000000
Kd 0.658375 0.584078 0.270498
Ks 0.500000 0.500000 0.500000
Ke 0.000000 0.000000 0.000000
Ni 1.000000
d 1.000000
illum 2

newmtl Material.337
Ns 223.529412
Ka 1.000000 1.000000 1.000000
Kd 0.014444 0.014444 0.014444
Ks 0.500000 0.500000 0.500000
Ke 0.000000 0.000000 0.000000
Ni 1.000000
d 1.000000
illum 2

newmtl Material.338
Ns 223.529412
Ka 1.000000 1.000000 1.000000
Kd 1.000000 0.871367 0.309469
Ks 0.500000 0.500000 0.500000
Ke 0.000000 0.000000 0.000000
Ni 1.000000
d 1.000000
illum 2

newmtl Material.339
Ns 223.529412
Ka 1.000000 1.000000 1.000000
Kd 0.086500 0.086500 0.086500
Ks 0.500000 0.500000 0.500000
Ke 0.000000 0.000000 0.000000
Ni 1.000000
d 1.000000
illum 2

newmtl Material.340
Ns 223.529412
Ka 1.000000 1.000000 1.000000
Kd 0.376262 0.102242 0.048172
Ks 0.500000 0.500000 0.500000
Ke 0.000000 0.000000 0.000000
Ni 1.000000
d 1.000000
illum 2

newmtl Material.341
Ns 223.529412
Ka 1.000000 1.000000 1.000000
Kd 0.033105 0.033105 0.033105
Ks 0.500000 0.500000 0.500000
Ke 0.000000 0.000000 0.000000
Ni 1.000000
d 1.000000
illum 2

newmtl Material.342
Ns 223.529412
Ka 1.000000 1.000000 1.000000
Kd 0.061246 0.061246 0.063010
Ks 0.500000 0.500000 0.500000
Ke 0.000000 0.000000 0.000000
Ni 1.000000
d 1.000000
illum 2

newmtl Material.343
Ns 223.529412
Ka 1.000000 1.000000 1.000000
Kd 0.168269 0.450786 0.799103
Ks 0.500000 0.500000 0.500000
Ke 0.000000 0.000000 0.000000
Ni 1.000000
d 1.000000
illum 2
