# Alias OBJ Model File
# Exported from SketchUp, (c) 2000-2012 Trimble Navigation Limited
# File units = millimeters

mtllib bec.mtl

g Mesh1 Bollard_for_Warehouse1 Model

usemtl _Metal_Aluminum_Anodized_1
v 0.206462 1.32771 -0.0553212
vt 0.997365 0.728642
vn 0.866025 2.98416e-16 0.5
v 0.206462 1.21707 -0.0553212
vt 0.997364 0.119736
v 0.217515 1.21707 -0.082006
vt 1.15678 0.119736
vn 0.965926 3.2028e-16 0.258819
v 0.217515 1.32771 -0.082006
vt 1.15678 0.728642
f 1/1/1 2/2/1 3/3/2 4/4/2 

v 0.188878 1.32771 -0.0324064
vt 0.837953 0.728642
vn 0.707107 2.84405e-16 0.707107
v 0.188878 1.21707 -0.0324064
vt 0.837953 0.119736
f 5/5/3 6/6/3 2/2/1 1/1/1 

v 0.165964 1.32771 -0.0148233
vt 0.678542 0.728642
vn 0.5 2.90512e-16 0.866025
v 0.165964 1.21707 -0.0148233
vt 0.678541 0.119736
f 7/7/4 8/8/4 6/6/3 5/5/3 

v 0.139279 1.32771 -0.00377005
vt 0.519131 0.728642
vn 0.258819 2.3552e-16 0.965926
v 0.139279 1.21707 -0.00377005
vt 0.51913 0.119736
f 9/9/5 10/10/5 8/8/4 7/7/4 

v 0.110642 1.32771 -1.63784e-17
vt 0.359719 0.728642
vn -3.49938e-16 1.4803e-16 1
v 0.110642 1.21707 -0
vt 0.359718 0.119736
f 11/11/6 12/12/6 10/10/5 9/9/5 

v 0.082006 1.32771 -0.00377005
vt 0.200308 0.728643
vn -0.258819 6.47359e-17 0.965926
v 0.082006 1.21707 -0.00377005
vt 0.200307 0.119736
f 13/13/7 14/14/7 12/12/6 11/11/6 

v 0.0553212 1.32771 -0.0148233
vt 0.0408962 0.728643
vn -0.5 -1.98322e-17 0.866025
v 0.0553212 1.21707 -0.0148233
vt 0.0408953 0.119736
f 15/15/8 16/16/8 14/14/7 13/13/7 

v 0.0324064 1.32771 -0.0324064
vt -0.118515 0.728643
vn -0.707107 -1.04673e-16 0.707107
v 0.0324064 1.21707 -0.0324064
vt -0.118516 0.119736
f 17/17/9 18/18/9 16/16/8 15/15/8 

v 0.0148233 1.32771 -0.0553212
vt -0.277927 0.728643
vn -0.866025 -1.75238e-16 0.5
v 0.0148233 1.21707 -0.0553212
vt -0.277928 0.119736
f 19/19/10 20/20/10 18/18/9 17/17/9 

v 0.00377005 1.32771 -0.082006
vt -0.437339 0.728643
vn -0.965926 -2.38892e-16 0.258819
v 0.00377005 1.21707 -0.082006
vt -0.43734 0.119736
f 21/21/11 22/22/11 20/20/10 19/19/10 

v 0 1.32771 -0.110642
vt -0.596751 0.728643
vn -1 -2.93623e-16 -1.95966e-16
v 3.27567e-17 1.21707 -0.110642
vt -0.596752 0.119736
f 23/23/12 24/24/12 22/22/11 21/21/11 

v 0.00377005 1.32771 -0.139279
vt -0.756163 0.728643
vn -0.965926 -3.23472e-16 -0.258819
v 0.00377005 1.21707 -0.139279
vt -0.756164 0.119736
f 25/25/13 26/26/13 24/24/12 23/23/12 

v 0.0148233 1.32771 -0.165964
vt -0.915575 0.728644
vn -0.866025 -3.3041e-16 -0.5
v 0.0148233 1.21707 -0.165964
vt -0.915576 0.119736
f 27/27/14 28/28/14 26/26/13 25/25/13 

v 0.0324064 1.32771 -0.188878
vt -1.07499 0.728644
vn -0.707107 -3.43632e-16 -0.707107
v 0.0324064 1.21707 -0.188878
vt -1.07499 0.119736
f 29/29/15 30/30/15 28/28/14 27/27/14 

v 0.0553212 1.32771 -0.206462
vt -1.2344 0.728644
vn -0.5 -3.42707e-16 -0.866025
v 0.0553212 1.21707 -0.206462
vt -1.2344 0.119736
f 31/31/16 32/32/16 30/30/15 29/29/15 

v 0.082006 1.32771 -0.217515
vt -1.39381 0.728644
vn -0.258819 -2.55666e-16 -0.965926
v 0.082006 1.21707 -0.217515
vt -1.39381 0.119736
f 33/33/17 34/34/17 32/32/16 31/31/16 

v 0.110642 1.32771 -0.221285
vt -1.55322 0.728644
vn 5.59902e-17 -1.09398e-16 -1
v 0.110642 1.21707 -0.221285
vt -1.55322 0.119736
f 35/35/18 36/36/18 34/34/17 33/33/17 

v 0.139279 1.32771 -0.217515
vt -1.71264 0.728644
vn 0.258819 -1.19719e-18 -0.965926
v 0.139279 1.21707 -0.217515
vt -1.71264 0.119736
f 37/37/19 38/38/19 36/36/18 35/35/18 

v 0.165964 1.32771 -0.206462
vt -1.87205 0.728645
vn 0.5 -5.16092e-18 -0.866025
v 0.165964 1.21707 -0.206462
vt -1.87205 0.119736
f 39/39/20 40/40/20 38/38/19 37/37/19 

v 0.188878 1.32771 -0.188878
vt 1.79442 0.728641
vn 0.707107 4.09749e-17 -0.707107
v 0.188878 1.21707 -0.188878
vt 1.79442 0.119736
vt 1.95383 0.119736
vt 1.95383 0.728641
f 41/41/21 42/42/21 40/43/20 39/44/20 

v 0.206462 1.32771 -0.165964
vt 1.63501 0.728641
vn 0.866025 1.78161e-16 -0.5
v 0.206462 1.21707 -0.165964
vt 1.63501 0.119736
f 43/45/22 44/46/22 42/42/21 41/41/21 

v 0.217515 1.32771 -0.139279
vt 1.4756 0.728641
vn 0.965926 2.54801e-16 -0.258819
v 0.217515 1.21707 -0.139279
vt 1.4756 0.119736
f 45/47/23 46/48/23 44/46/22 43/45/22 

v 0.221285 1.32771 -0.110642
vt 1.31619 0.728641
vn 1 2.94435e-16 3.77934e-16
v 0.221285 1.21707 -0.110642
vt 1.31619 0.119736
f 47/49/24 48/50/24 46/48/23 45/47/23 

f 4/4/2 3/3/2 48/50/24 47/49/24 

usemtl Color_000
v 0.221285 1.10642 -0.110642
vt 3.75749 30
vn 1 0 3.77934e-16
vt 3.75749 33
vt 2.97433 33
vn 0.965926 0 0.258819
v 0.217515 1.10642 -0.082006
vt 2.97433 30
f 49/51/25 48/52/25 3/53/26 50/54/26 

v 0.217515 1.10642 -0.139279
vn 0.965926 0 -0.258819
vt 2.19118 33
vt 2.19118 30
f 51/54/27 46/53/27 48/55/25 49/56/25 

v 0.206462 1.10642 -0.165964
vt 2.01517 30
vn 0.866025 0 -0.5
vt 2.01517 33
vt 1.23201 33
vt 1.23201 30
f 52/57/28 44/58/28 46/59/27 51/60/27 

v 0.188878 1.10642 -0.188878
vt 0.945354 30
vn 0.707107 0 -0.707107
vt 0.945354 33
vt 0.162197 33
vt 0.162197 30
f 53/61/29 42/62/29 44/63/28 52/64/28 

v 0.165964 1.10642 -0.206462
vt -0.162197 30
vn 0.5 0 -0.866025
vt -0.162197 33
vt -0.945354 33
vt -0.945354 30
f 54/65/30 40/66/30 42/67/29 53/68/29 

v 0.139279 1.10642 -0.217515
vt -1.23201 30
vn 0.258819 0 -0.965926
vt -1.23201 33
vt -2.01517 33
vt -2.01517 30
f 55/69/31 38/70/31 40/71/30 54/72/30 

v 0.110642 1.10642 -0.221285
vt -2.19118 30
vn -9.79828e-17 0 -1
vt -2.19118 33
vt -2.97433 33
vt -2.97433 30
f 56/73/32 36/74/32 38/75/31 55/76/31 

v 0.082006 1.10642 -0.217515
vn -0.258819 1.69161e-32 -0.965926
vt -3.75749 33
vt -3.75749 30
f 57/76/33 34/75/33 36/77/32 56/78/32 

v 0.0553212 1.10642 -0.206462
vt -3.52811 30
vn -0.5 -9.9935e-33 -0.866025
vt -3.52811 33
vt -4.31127 33
vt -4.31127 30
f 58/79/34 32/80/34 34/81/33 57/82/33 

v 0.0324064 1.10642 -0.188878
vt -3.81477 30
vn -0.707107 -2.69096e-32 -0.707107
vt -3.81477 33
vt -4.59792 33
vt -4.59792 30
f 59/83/35 30/84/35 32/85/34 58/86/34 

v 0.0148233 1.10642 -0.165964
vn -0.866025 0 -0.5
f 60/83/36 28/84/36 30/85/35 59/86/35 

v 0.00377005 1.10642 -0.139279
vn -0.965926 -8.76512e-32 -0.258819
f 61/79/37 26/80/37 28/81/36 60/82/36 

v 3.27567e-17 1.10642 -0.110642
vn -1 -8.76512e-32 -2.23961e-16
f 62/76/38 24/75/38 26/77/37 61/78/37 

v 0.00377005 1.10642 -0.082006
vn -0.965926 -9.8594e-32 0.258819
f 63/73/39 22/74/39 24/75/38 62/76/38 

v 0.0148233 1.10642 -0.0553212
vn -0.866025 -1.546e-33 0.5
f 64/69/40 20/70/40 22/71/39 63/72/39 

v 0.0324064 1.10642 -0.0324064
vn -0.707107 1.67186e-31 0.707107
f 65/65/41 18/66/41 20/67/40 64/68/40 

v 0.0553212 1.10642 -0.0148233
vn -0.5 7.01384e-32 0.866025
f 66/61/42 16/62/42 18/63/41 65/64/41 

v 0.082006 1.10642 -0.00377005
vn -0.258819 0 0.965926
f 67/57/43 14/58/43 16/59/42 66/60/42 

v 0.110642 1.10642 -0
vn -3.49938e-16 0 1
f 68/54/44 12/53/44 14/55/43 67/56/43 

v 0.139279 1.10642 -0.00377005
vn 0.258819 0 0.965926
f 69/51/45 10/52/45 12/53/44 68/54/44 

v 0.165964 1.10642 -0.0148233
vt 4.31127 30
vn 0.5 0 0.866025
vt 4.31127 33
vt 3.52811 33
vt 3.52811 30
f 70/87/46 8/88/46 10/89/45 69/90/45 

v 0.188878 1.10642 -0.0324064
vt 4.59792 30
vn 0.707107 5.38191e-32 0.707107
vt 4.59792 33
vt 3.81477 33
vt 3.81477 30
f 71/91/47 6/92/47 8/93/46 70/94/46 

v 0.206462 1.10642 -0.0553212
vn 0.866025 5.38191e-32 0.5
f 72/91/48 2/92/48 6/93/47 71/94/47 

f 50/87/26 3/88/26 2/89/48 72/90/48 

usemtl _Metal_Aluminum_Anodized_1
v 0.217515 0 -0.082006
vn 0.965926 -3.16622e-17 0.258819
vt 1.79443 6.20879
vt 1.63502 6.20879
vn 0.866025 -2.92053e-17 0.5
v 0.206462 0 -0.0553212
f 73/42/49 50/95/49 72/96/50 74/46/50 

v 0.221285 0 -0.110642
vn 1 -2.9476e-17 3.77934e-16
vt 1.95384 6.20879
f 75/43/51 49/97/51 50/95/49 73/42/49 

v 0.217515 0 -0.139279
vn 0.965926 -2.54022e-17 -0.258819
vt -1.71263 6.20882
vt -1.87204 6.20882
f 76/38/52 51/98/52 49/99/51 75/40/51 

v 0.206462 0 -0.165964
vn 0.866025 -1.75975e-17 -0.5
vt -1.55322 6.20882
f 77/36/53 52/100/53 51/98/52 76/38/52 

v 0.188878 0 -0.188878
vn 0.707107 -4.17323e-18 -0.707107
vt -1.3938 6.20882
f 78/34/54 53/101/54 52/100/53 77/36/53 

v 0.165964 0 -0.206462
vn 0.5 2.21761e-19 -0.866025
vt -1.23439 6.20881
f 79/32/55 54/102/55 53/101/54 78/34/54 

v 0.139279 0 -0.217515
vn 0.258819 -6.88389e-21 -0.965926
vt -1.07498 6.20881
f 80/30/56 55/103/56 54/102/55 79/32/55 

v 0.110642 0 -0.221285
vn 4.19926e-17 1.10373e-17 -1
vt -0.915567 6.20881
f 81/28/57 56/104/57 55/103/56 80/30/56 

v 0.082006 0 -0.217515
vn -0.258819 2.57906e-17 -0.965926
vt -0.756155 6.20881
f 82/26/58 57/105/58 56/104/57 81/28/57 

v 0.0553212 0 -0.206462
vn -0.5 3.44135e-17 -0.866025
vt -0.596743 6.20881
f 83/24/59 58/106/59 57/105/58 82/26/58 

v 0.0324064 0 -0.188878
vn -0.707107 3.40602e-17 -0.707107
vt -0.437331 6.20881
f 84/22/60 59/107/60 58/106/59 83/24/59 

v 0.0148233 0 -0.165964
vn -0.866025 3.29285e-17 -0.5
vt -0.27792 6.20881
f 85/20/61 60/108/61 59/107/60 84/22/60 

v 0.00377005 0 -0.139279
vn -0.965926 3.2489e-17 -0.258819
vt -0.118508 6.2088
f 86/18/62 61/109/62 60/108/61 85/20/61 

v 0 0 -0.110642
vn -1 2.92162e-17 -2.09963e-16
vt 0.0409038 6.2088
f 87/16/63 62/110/63 61/109/62 86/18/62 

v 0.00377005 0 -0.082006
vn -0.965926 2.39346e-17 0.258819
vt 0.200315 6.2088
f 88/14/64 63/111/64 62/110/63 87/16/63 

v 0.0148233 0 -0.0553212
vn -0.866025 1.76666e-17 0.5
vt 0.359727 6.2088
f 89/12/65 64/112/65 63/111/64 88/14/64 

v 0.0324064 0 -0.0324064
vn -0.707107 1.04673e-17 0.707107
vt 0.519138 6.2088
f 90/10/66 65/113/66 64/112/65 89/12/65 

v 0.0553212 0 -0.0148233
vn -0.5 1.98322e-18 0.866025
vt 0.67855 6.2088
f 91/8/67 66/114/67 65/113/66 90/10/66 

v 0.082006 0 -0.00377005
vn -0.258819 -6.50607e-18 0.965926
vt 0.837961 6.2088
f 92/6/68 67/115/68 66/114/67 91/8/67 

v 0.110642 0 -1.63784e-17
vn -3.63936e-16 -1.4803e-17 1
vt 0.997372 6.2088
f 93/2/69 68/116/69 67/115/68 92/6/68 

v 0.139279 0 -0.00377005
vn 0.258819 -2.34243e-17 0.965926
vt 1.15678 6.20879
f 94/3/70 69/117/70 68/116/69 93/2/69 

v 0.165964 0 -0.0148233
vn 0.5 -2.89559e-17 0.866025
vt 1.31619 6.20879
f 95/50/71 70/118/71 69/117/70 94/3/70 

v 0.188878 0 -0.0324064
vn 0.707107 -2.81375e-17 0.707107
vt 1.47561 6.20879
f 96/48/72 71/119/72 70/118/71 95/50/71 

f 74/46/50 72/96/50 71/119/72 96/48/72 

vt -0.0481125 -0.0277778
vn 0 -1 -0
vt -0.0392837 -0.0392837
vt -0.0277778 -0.0481125
vt -0.0143788 -0.0536625
vt 6.93889e-18 -0.0555556
vt 0.0143788 -0.0536625
vt 0.0277778 -0.0481125
vt 0.0392837 -0.0392837
vt 0.0481125 -0.0277778
vt 0.0536625 -0.0143788
vt 0.0555556 6.93889e-18
vt 0.0536625 0.0143788
vt 0.0481125 0.0277778
vt 0.0392837 0.0392837
vt 0.0277778 0.0481125
vt 0.0143788 0.0536625
vt 0 0.0555556
vt -0.0143788 0.0536625
vt -0.0277778 0.0481125
vt -0.0392837 0.0392837
vt -0.0481125 0.0277778
vt -0.0536625 0.0143788
vt -0.0555556 0
vt -0.0536625 -0.0143788
f 74/120/73 96/121/73 95/122/73 94/123/73 93/124/73 92/125/73 91/126/73 90/127/73 89/128/73 88/129/73 87/130/73 86/131/73 85/132/73 84/133/73 83/134/73 82/135/73 81/136/73 80/137/73 79/138/73 78/139/73 77/140/73 76/141/73 75/142/73 73/143/73 

vt 0.864743 0.849606
vn 0 1 -0
vt 1.0028 0.7699
vt 1.47017 0.7699
vt 1.60822 0.849605
vt 1.72094 0.962326
vt 1.80065 1.10038
vt 1.84191 1.25436
vt 1.84191 1.41377
vt 1.80065 1.56775
vt 1.72094 1.7058
vt 1.60822 1.81852
vt 1.47017 1.89823
vt 1.31619 1.93949
vt 1.15678 1.93949
vt 1.0028 1.89823
vt 0.864744 1.81853
vt 0.752023 1.7058
vt 0.672317 1.56775
vt 0.631058 1.41377
vt 0.631058 1.25436
vt 0.672317 1.10038
vt 0.752022 0.962327
f 5/144/74 1/145/74 4/4/74 47/49/74 45/146/74 43/147/74 41/148/74 39/149/74 37/150/74 35/151/74 33/152/74 31/153/74 29/154/74 27/155/74 25/156/74 23/157/74 21/158/74 19/159/74 17/160/74 15/161/74 13/162/74 11/163/74 9/164/74 7/165/74 

