# 
# Wavefront material file
# Converted by the DEEP Exploration  Deep Exploration 5 5.0.0.1399 Release
# Right Hemisphere, LTD
# http://www.righthemisphere.com/
# 

newmtl plane
Ka 0.117647 0.117647 0.117647
Kd 1 1 1
Ks 0.752941 0.752941 0.752941
illum 2
Ns 8
map_Kd FA-18_RC_P01.png
map_bump FA-18_RC_N.png
bump FA-18_RC_N.png
map_opacity 
map_d 
refl 
map_kS 
map_kA 
map_Ns 

newmtl seat
Ka 0.117647 0.117647 0.117647
Kd 1 1 1
Ks 0.752941 0.752941 0.752941
illum 2
Ns 8
map_Kd Eject_Seat.png
map_bump 
bump 
map_opacity 
map_d 
refl 
map_kS 
map_kA 
map_Ns 

newmtl pilot
Ka 0.117647 0.117647 0.117647
Kd 1 1 1
Ks 0.752941 0.752941 0.752941
illum 2
Ns 8
map_Kd Pilot_usa.png
map_bump 
bump 
map_opacity 
map_d 
refl 
map_kS 
map_kA 
map_Ns 

newmtl glass
Ka 0.117647 0.117647 0.117647
Kd 1 1 1
Ks 0.752941 0.752941 0.752941
illum 2
Ns 8
map_Kd Glass_Cockpit.png
map_bump 
bump 
map_opacity 
map_d 
refl 
map_kS 
map_kA 
map_Ns 
